{
"skeleton": {
	"hash": "QVKNNHjuqw0dswOVM1LJvJCAnes",
	"spine": "3.8.99",
	"x": -192,
	"y": -192,
	"width": 384,
	"height": 384,
	"images": "",
	"audio": ""
},
"bones": [
	{ "name": "root" },
	{ "name": "slot_circle", "parent": "root", "color": "fbdf55ff" },
	{ "name": "slot_bg1", "parent": "slot_circle", "color": "00ff2c00" },
	{ "name": "skill_thumbnail", "parent": "root", "rotation": -0.27, "scaleX": 0.75, "scaleY": 0.75, "color": "fd382bff" },
	{ "name": "slot_bg2", "parent": "root", "color": "00ff2c00" },
	{ "name": "light_stroke1", "parent": "root", "color": "0de4ffff" },
	{ "name": "light_stroke2", "parent": "root", "color": "0de4ffff" },
	{ "name": "light_glow", "parent": "root", "color": "16e6ffff" },
	{ "name": "skill_thumbnail_flip", "parent": "skill_thumbnail", "color": "fd382bff" }
],
"slots": [
	{ "name": "light_glow", "bone": "light_glow", "color": "ffffff00", "attachment": "light_glow", "blend": "additive" },
	{ "name": "light_stroke1", "bone": "light_stroke1", "color": "ffffff00", "attachment": "light_stroke" },
	{ "name": "light_stroke2", "bone": "light_stroke2", "color": "ffffff00", "blend": "additive" },
	{ "name": "slot_bg2", "bone": "slot_bg2", "color": "ffffff00" },
	{ "name": "slot_bg1", "bone": "slot_bg1", "attachment": "slot_circle" },
	{ "name": "slot_circle", "bone": "slot_circle", "attachment": "slot_circle" },
	{ "name": "skill_thumbnail_flip", "bone": "skill_thumbnail_flip", "color": "ffffff00", "attachment": "characters/particle_sprites/gui_thumbnail_char_water_skill2" }
],
"skins": [
	{
		"name": "default",
		"attachments": {
			"skill_thumbnail_flip": {
				"characters/particle_sprites/gui_thumbnail_char_chaos_skill2": { "width": 160, "height": 160 },
				"characters/particle_sprites/gui_thumbnail_char_ice_skill1": { "rotation": 0.27, "width": 160, "height": 160 },
				"characters/particle_sprites/gui_thumbnail_char_ice_skill2": { "width": 160, "height": 160 },
				"characters/particle_sprites/gui_thumbnail_char_leaf_skill1": { "rotation": 0.27, "width": 160, "height": 160 },
				"characters/particle_sprites/gui_thumbnail_char_leaf_skill2": { "width": 160, "height": 160 },
				"characters/particle_sprites/gui_thumbnail_char_light_skill1": { "rotation": 0.27, "width": 160, "height": 160 },
				"characters/particle_sprites/gui_thumbnail_char_light_skill2": { "width": 160, "height": 160 },
				"characters/particle_sprites/gui_thumbnail_char_lightning_skill1": { "rotation": 0.27, "width": 160, "height": 160 },
				"characters/particle_sprites/gui_thumbnail_char_lightning_skill2": { "width": 160, "height": 160 },
				"characters/particle_sprites/gui_thumbnail_char_sand_skill1": { "rotation": 0.27, "width": 160, "height": 160 },
				"characters/particle_sprites/gui_thumbnail_char_sand_skill2": { "width": 160, "height": 160 },
				"characters/particle_sprites/gui_thumbnail_char_stone_skill1": { "rotation": 0.27, "width": 160, "height": 160 },
				"characters/particle_sprites/gui_thumbnail_char_stone_skill2": { "width": 160, "height": 160 },
				"characters/particle_sprites/gui_thumbnail_char_toxic_skill1": { "rotation": 0.27, "width": 160, "height": 160 },
				"characters/particle_sprites/gui_thumbnail_char_toxic_skill2": { "width": 160, "height": 160 },
				"characters/particle_sprites/gui_thumbnail_char_void_skill1": { "rotation": 0.27, "width": 160, "height": 160 },
				"characters/particle_sprites/gui_thumbnail_char_void_skill2": { "width": 160, "height": 160 },
				"characters/particle_sprites/gui_thumbnail_char_water_skill1": { "rotation": 0.27, "width": 163, "height": 163 },
				"characters/particle_sprites/gui_thumbnail_char_water_skill2": { "width": 165, "height": 165 },
				"characters/particle_sprites/gui_thumbnail_char_wind_skill1": { "rotation": 0.27, "width": 160, "height": 160 },
				"characters/particle_sprites/gui_thumbnail_char_wind_skill2": { "width": 160, "height": 160 }
			}
		}
	},
	{
		"name": "comborose_skill_basic",
		"attachments": {
			"light_glow": {
				"light_glow": { "name": "comborose/light_glow", "color": "ffffff63", "scaleX": 3, "scaleY": 3, "width": 128, "height": 128 }
			},
			"light_stroke1": {
				"light_stroke": { "name": "comborose/light_stroke1", "scaleX": -1, "rotation": -41.65, "width": 159, "height": 157 }
			},
			"light_stroke2": {
				"light_stroke": {
					"name": "comborose/light_stroke2",
					"color": "ffffff95",
					"x": 52.02,
					"scaleX": -0.8,
					"scaleY": 0.8,
					"width": 179,
					"height": 130
				}
			},
			"slot_bg1": {
				"slot_circle": { "name": "comborose/gui_bg_comborose_skillslot_bg1", "scaleX": -1, "width": 155, "height": 155 }
			},
			"slot_bg2": {
				"slot_circle": { "name": "comborose/gui_bg_comborose_slot_bg2", "rotation": -41.65, "width": 177, "height": 174 }
			},
			"slot_circle": {
				"slot_circle": { "name": "comborose/gui_bg_comborose_skillslot_bg2", "scaleX": -1, "width": 155, "height": 155 }
			}
		}
	}
],
"animations": {
	"NEW_comborose_active": {
		"slots": {
			"light_glow": {
				"color": [
					{ "color": "ffffff00", "curve": 0.25, "c3": 0.75 },
					{ "time": 0.3333, "color": "ffffffff" }
				]
			},
			"light_stroke1": {
				"color": [
					{ "color": "ffffffff" }
				]
			},
			"light_stroke2": {
				"color": [
					{ "color": "ffffff00", "curve": 0.003, "c2": 0.97, "c3": 0.75 },
					{ "time": 0.4, "color": "ffffffff" }
				]
			},
			"skill_thumbnail_flip": {
				"color": [
					{ "color": "ffffff78" },
					{ "time": 0.1667, "color": "ffffffff" }
				]
			},
			"slot_bg1": {
				"color": [
					{ "color": "ffffffff" }
				]
			},
			"slot_bg2": {
				"color": [
					{ "color": "ffffff00" },
					{ "time": 0.1667, "color": "ffffffff" }
				]
			},
			"slot_circle": {
				"color": [
					{ "color": "ffffffff" }
				]
			}
		},
		"bones": {
			"light_glow": {
				"translate": [
					{ "curve": 0.25, "c3": 0.75 },
					{ "time": 0.1, "x": -40 }
				],
				"scale": [
					{ "x": 0.1, "y": 0.1, "curve": 0, "c2": 0.99, "c3": 0.75 },
					{ "time": 0.3333 }
				]
			},
			"light_stroke1": {
				"rotate": [
					{ "angle": 120, "curve": 0, "c2": 0.95, "c3": 0.63 },
					{ "time": 2 }
				],
				"translate": [
					{},
					{ "time": 0.1667, "x": -40 }
				],
				"scale": [
					{},
					{ "time": 0.0667, "x": 1.25, "y": 1.25 }
				]
			},
			"light_stroke2": {
				"translate": [
					{ "x": -30.51, "curve": 0, "c2": 1.05, "c3": 0.75 },
					{ "time": 0.8333, "x": 16.42 }
				],
				"scale": [
					{ "x": 0.1, "curve": "stepped" },
					{ "time": 0.0667, "x": 0.1, "curve": 0, "c2": 1.05, "c3": 0.425 },
					{ "time": 0.8333, "x": 1.5, "y": 1.3, "curve": "stepped" },
					{ "time": 2, "x": 1.5, "y": 1.3 }
				]
			},
			"slot_bg1": {
				"rotate": [
					{ "curve": 0, "c2": 0.54, "c3": 0.232 },
					{ "time": 2, "angle": 180 }
				],
				"scale": [
					{},
					{ "time": 0.1667, "x": 0.962, "y": 0.962 }
				]
			},
			"slot_bg2": {
				"rotate": [
					{ "angle": 140, "curve": 0, "c2": 0.95, "c3": 0.63 },
					{ "time": 2 }
				],
				"translate": [
					{},
					{ "time": 0.1667, "x": -40 }
				],
				"scale": [
					{ "x": 1.213, "y": 1.213 }
				]
			},
			"slot_circle": {
				"rotate": [
					{ "curve": 0, "c2": 0.6, "c3": 0.22 },
					{ "time": 2, "angle": -60 }
				],
				"translate": [
					{ "curve": 0.25, "c3": 0.75 },
					{ "time": 0.1, "x": -40 }
				],
				"scale": [
					{ "curve": 0.25, "c3": 0.75 },
					{ "time": 0.1, "x": 1.5, "y": 1.5, "curve": 0.25, "c3": 0.75 },
					{ "time": 0.1667, "x": 1.3, "y": 1.3 }
				]
			},
			"skill_thumbnail": {
				"translate": [
					{ "curve": 0.25, "c3": 0.75 },
					{ "time": 0.1, "x": -40 }
				],
				"scale": [
					{ "curve": 0.25, "c3": 0.75 },
					{ "time": 0.1, "x": 1.2, "y": 1.2, "curve": 0.25, "c3": 0.75 },
					{ "time": 0.1667, "x": 1.25, "y": 1.25 },
					{ "time": 1.1667, "x": 1.333, "y": 1.333 }
				]
			}
		}
	},
	"NEW_comborose_inactive": {
		"slots": {
			"light_glow": {
				"color": [
					{ "color": "ffffffff" },
					{ "time": 0.5, "color": "ffffff00" }
				]
			},
			"light_stroke1": {
				"color": [
					{ "color": "ffffffff" }
				]
			},
			"light_stroke2": {
				"color": [
					{ "color": "ffffffff", "curve": 0, "c2": 0.89, "c3": 0.75 },
					{ "time": 0.5667, "color": "ffffff00" }
				]
			},
			"skill_thumbnail_flip": {
				"color": [
					{ "color": "ffffffff" }
				]
			},
			"slot_bg1": {
				"color": [
					{ "color": "ffffffff" }
				]
			},
			"slot_bg2": {
				"color": [
					{ "color": "ffffffff" },
					{ "time": 0.6667, "color": "ffffff00" }
				]
			},
			"slot_circle": {
				"color": [
					{ "color": "ffffffff" }
				]
			}
		},
		"bones": {
			"light_glow": {
				"translate": [
					{ "x": -40, "curve": 0, "c2": 0.25, "c4": 0.75 },
					{ "time": 0.5 }
				],
				"scale": [
					{},
					{ "time": 0.5, "x": 0.1, "y": 0.1 }
				]
			},
			"light_stroke1": {
				"rotate": [
					{ "curve": 0, "c2": 0.83, "c3": 0.75 },
					{ "time": 2, "angle": -120 }
				],
				"translate": [
					{ "x": -40, "curve": 0, "c2": 0.99, "c3": 0.75 },
					{ "time": 0.1667 }
				],
				"scale": [
					{ "x": 1.2, "y": 1.2, "curve": 0, "c2": 0.28, "c3": 0.151 },
					{ "time": 0.5, "x": 0.723, "y": 0.723 }
				]
			},
			"light_stroke2": {
				"translate": [
					{ "x": 16.42, "curve": 0, "c2": 0.89, "c3": 0.75 },
					{ "time": 0.5667, "x": -30.51 }
				],
				"scale": [
					{ "x": 1.5, "y": 1.3 },
					{ "time": 0.7333, "x": 0.5, "y": 0.5 }
				]
			},
			"slot_bg1": {
				"rotate": [
					{ "angle": 180, "curve": 0, "c2": 0.98, "c3": 0.75 },
					{ "time": 2, "angle": 60 }
				],
				"scale": [
					{ "x": 0.85, "y": 0.85 },
					{ "time": 0.1667 }
				]
			},
			"slot_bg2": {
				"rotate": [
					{},
					{ "time": 2, "angle": 90 }
				],
				"translate": [
					{ "x": -40, "curve": 0, "c2": 0.99, "c3": 0.75 },
					{ "time": 0.1667 }
				],
				"scale": [
					{ "x": 1.2, "y": 1.2, "curve": 0, "c2": 0.28, "c3": 0.151 },
					{ "time": 2, "x": 0.8, "y": 0.8 }
				]
			},
			"slot_circle": {
				"rotate": [
					{ "angle": -60, "curve": 0, "c2": 0.73, "c3": 0.75 },
					{ "time": 2 }
				],
				"translate": [
					{ "x": -40, "curve": 0, "c2": 0.98, "c3": 0.75 },
					{ "time": 0.1667 }
				],
				"scale": [
					{ "x": 1.3, "y": 1.3, "curve": 0, "c2": 0.98, "c3": 0.75 },
					{ "time": 0.1667 }
				]
			},
			"skill_thumbnail": {
				"translate": [
					{ "x": -40, "curve": 0, "c2": 0.98, "c3": 0.75 },
					{ "time": 0.1667 }
				],
				"scale": [
					{ "x": 1.25, "y": 1.25, "curve": 0, "c2": 0.98, "c3": 0.75 },
					{ "time": 0.1667 }
				]
			}
		}
	},
	"NEW_comborose_popout": {
		"slots": {
			"light_glow": {
				"color": [
					{ "color": "ffffff00" }
				]
			},
			"light_stroke1": {
				"color": [
					{ "color": "ffffffff" },
					{ "time": 0.0333, "color": "ffffff00" }
				]
			},
			"light_stroke2": {
				"color": [
					{ "color": "ffffff00" }
				]
			},
			"skill_thumbnail_flip": {
				"color": [
					{ "color": "ffffff78" },
					{ "time": 0.1667, "color": "ffffff00" }
				]
			},
			"slot_bg1": {
				"color": [
					{ "color": "ffffffff" },
					{ "time": 0.1, "color": "ffffff00" }
				]
			},
			"slot_bg2": {
				"color": [
					{ "color": "ffffff00" }
				]
			},
			"slot_circle": {
				"color": [
					{ "color": "ffffffff" },
					{ "time": 0.1, "color": "ffffff00" }
				]
			}
		},
		"bones": {
			"light_stroke1": {
				"rotate": [
					{ "angle": -120, "curve": 0.003, "c2": 0.97, "c3": 0.75 },
					{ "time": 0.0667, "angle": 160 }
				],
				"scale": [
					{},
					{ "time": 0.0667, "x": 0.2, "y": 0.2 }
				]
			},
			"slot_bg1": {
				"rotate": [
					{ "curve": 0, "c2": 0.88, "c3": 0.75 },
					{ "time": 0.1, "angle": 60 }
				]
			},
			"slot_circle": {
				"scale": [
					{ "curve": 0, "c2": 0.25, "c4": 0.75 },
					{ "time": 0.1, "x": 0.5, "y": 0.5 }
				]
			},
			"skill_thumbnail": {
				"scale": [
					{ "curve": 0, "c2": 0.25, "c4": 0.75 },
					{ "time": 0.1, "x": 0.5, "y": 0.5 }
				]
			}
		}
	},
	"NEW_comborose_popup_available": {
		"slots": {
			"light_stroke1": {
				"color": [
					{ "color": "ffffff00" }
				]
			},
			"light_stroke2": {
				"color": [
					{ "color": "ffffff00" }
				]
			},
			"skill_thumbnail_flip": {
				"color": [
					{ "color": "ffffffff" }
				]
			},
			"slot_bg1": {
				"color": [
					{ "color": "ffffffff" }
				]
			},
			"slot_circle": {
				"color": [
					{ "color": "ffffffff" }
				]
			}
		},
		"bones": {
			"light_stroke1": {
				"rotate": [
					{ "curve": 0.003, "c2": 0.97, "c3": 0.75 },
					{ "time": 2, "angle": -120 }
				],
				"translate": [
					{ "x": 220, "curve": "stepped" },
					{ "time": 0.0667, "x": 220, "curve": 0.25, "c3": 0.75 },
					{ "time": 0.2333 }
				],
				"scale": [
					{ "x": 0.2, "y": 0.2, "curve": 0, "c2": 0.93, "c3": 0.75 },
					{ "time": 0.6333 }
				]
			},
			"slot_bg1": {
				"rotate": [
					{ "angle": -133.04, "curve": 0, "c2": 0.33, "c3": 0 },
					{ "time": 2 }
				],
				"scale": [
					{ "x": 0.5, "y": 0.5 },
					{ "time": 0.2333, "x": 1.1, "y": 1.1 },
					{ "time": 0.3 }
				]
			},
			"slot_circle": {
				"rotate": [
					{ "curve": 0.25, "c3": 0.407 },
					{ "time": 2, "angle": 30 }
				],
				"translate": [
					{ "x": 220, "curve": "stepped" },
					{ "time": 0.0667, "x": 220, "curve": 0.25, "c3": 0.75 },
					{ "time": 0.2333 }
				],
				"scale": [
					{ "x": 0, "y": 0, "curve": "stepped" },
					{ "time": 0.0667, "x": 0, "y": 0, "curve": 0.25, "c3": 0.75 },
					{ "time": 0.2333, "x": 1.2, "y": 1.2, "curve": 0.25, "c3": 0.75 },
					{ "time": 0.3 }
				]
			},
			"skill_thumbnail": {
				"translate": [
					{ "x": 220, "curve": "stepped" },
					{ "time": 0.0667, "x": 220, "curve": 0.25, "c3": 0.75 },
					{ "time": 0.2333 }
				],
				"scale": [
					{ "x": 0, "y": 0, "curve": "stepped" },
					{ "time": 0.0667, "x": 0, "y": 0, "curve": 0.25, "c3": 0.75 },
					{ "time": 0.2333, "x": 1.2, "y": 1.2, "curve": 0.25, "c3": 0.75 },
					{ "time": 0.3 }
				]
			}
		}
	},
	"NEW_comborose_popup_unavailable": {
		"slots": {
			"light_stroke1": {
				"color": [
					{ "color": "ffffff00" }
				]
			},
			"light_stroke2": {
				"color": [
					{ "color": "ffffff00" }
				]
			},
			"skill_thumbnail_flip": {
				"color": [
					{ "color": "ffffff64" }
				]
			},
			"slot_bg1": {
				"color": [
					{ "color": "ffffffff" }
				]
			},
			"slot_circle": {
				"color": [
					{ "color": "ffffffff" }
				]
			}
		},
		"bones": {
			"light_stroke1": {
				"rotate": [
					{ "curve": 0.003, "c2": 0.97, "c3": 0.75 },
					{ "time": 2, "angle": -120 }
				],
				"translate": [
					{ "x": 220, "curve": "stepped" },
					{ "time": 0.0667, "x": 220, "curve": 0.25, "c3": 0.75 },
					{ "time": 0.2333 }
				],
				"scale": [
					{ "x": 0.2, "y": 0.2, "curve": 0, "c2": 0.93, "c3": 0.75 },
					{ "time": 0.6333 }
				]
			},
			"slot_bg1": {
				"rotate": [
					{ "angle": -133.04, "curve": 0, "c2": 0.33, "c3": 0 },
					{ "time": 2 }
				],
				"scale": [
					{ "x": 0.5, "y": 0.5 },
					{ "time": 0.2333, "x": 1.1, "y": 1.1 },
					{ "time": 0.3 }
				]
			},
			"slot_circle": {
				"rotate": [
					{ "curve": 0.25, "c3": 0.407 },
					{ "time": 2, "angle": 30 }
				],
				"translate": [
					{ "x": 220, "curve": "stepped" },
					{ "time": 0.0667, "x": 220, "curve": 0.25, "c3": 0.75 },
					{ "time": 0.2333 }
				],
				"scale": [
					{ "x": 0, "y": 0, "curve": "stepped" },
					{ "time": 0.0667, "x": 0, "y": 0, "curve": 0.25, "c3": 0.75 },
					{ "time": 0.2333, "x": 1.2, "y": 1.2, "curve": 0.25, "c3": 0.75 },
					{ "time": 0.3 }
				]
			},
			"skill_thumbnail": {
				"translate": [
					{ "x": 220, "curve": "stepped" },
					{ "time": 0.0667, "x": 220, "curve": 0.25, "c3": 0.75 },
					{ "time": 0.2333 }
				],
				"scale": [
					{ "x": 0, "y": 0, "curve": "stepped" },
					{ "time": 0.0667, "x": 0, "y": 0, "curve": 0.25, "c3": 0.75 },
					{ "time": 0.2333, "x": 1.2, "y": 1.2, "curve": 0.25, "c3": 0.75 },
					{ "time": 0.3 }
				]
			}
		}
	},
	"NEW_comborose_selected": {
		"slots": {
			"light_glow": {
				"color": [
					{ "color": "ffffffff", "curve": 0, "c2": 0.66, "c3": 0.75 },
					{ "time": 0.5, "color": "ffffff00" }
				]
			},
			"light_stroke1": {
				"color": [
					{ "color": "ffffffff", "curve": 0, "c2": 0.99, "c3": 0.75 },
					{ "time": 0.2333, "color": "ffffff00" }
				]
			},
			"light_stroke2": {
				"color": [
					{ "color": "ffffffff", "curve": 0, "c2": 1, "c3": 0.75 },
					{ "time": 0.5667, "color": "ffffff00" }
				]
			},
			"skill_thumbnail_flip": {
				"color": [
					{ "color": "ffffffff", "curve": "stepped" },
					{ "time": 0.2667, "color": "ffffffff", "curve": 0.018, "c2": 0.96, "c3": 0.75 },
					{ "time": 0.8333, "color": "ffffff00" }
				]
			},
			"slot_bg1": {
				"color": [
					{ "color": "ffffffff" },
					{ "time": 0.8333, "color": "ffffff00" }
				]
			},
			"slot_bg2": {
				"color": [
					{ "color": "ffffffff" },
					{ "time": 0.3333, "color": "ffffff00" }
				]
			},
			"slot_circle": {
				"color": [
					{ "time": 0.1667, "color": "ffffffff", "curve": 0.018, "c2": 0.96, "c3": 0.75 },
					{ "time": 0.8333, "color": "ffffff00" }
				]
			}
		},
		"bones": {
			"light_glow": {
				"scale": [
					{},
					{ "time": 0.5, "x": 1.6, "y": 1.6 }
				]
			},
			"light_stroke1": {
				"scale": [
					{ "curve": 0, "c2": 0.98, "c3": 0.75 },
					{ "time": 0.3333, "x": 1.6, "y": 1.6 }
				]
			},
			"light_stroke2": {
				"translate": [
					{ "x": 16.42 }
				],
				"scale": [
					{ "time": 1.1667, "x": 1.5, "y": 1.3 }
				]
			},
			"slot_bg1": {
				"scale": [
					{ "curve": 0, "c2": 0.3, "c3": 0.521 },
					{ "time": 0.8333, "x": 0.8, "y": 0.8 }
				]
			},
			"slot_bg2": {
				"rotate": [
					{}
				],
				"scale": [
					{ "curve": 0, "c2": 0.91, "c3": 0.75 },
					{ "time": 0.3333, "x": 1.4, "y": 1.4 }
				]
			},
			"slot_circle": {
				"scale": [
					{ "x": 1.3, "y": 1.3, "curve": 0.018, "c2": 0.96, "c3": 0.75 },
					{ "time": 0.8333, "x": 1.6, "y": 1.6 }
				]
			},
			"skill_thumbnail": {
				"scale": [
					{ "x": 1.3, "y": 1.3, "curve": 0.018, "c2": 0.96, "c3": 0.75 },
					{ "time": 0.8333, "x": 1.6, "y": 1.6 }
				]
			}
		}
	},
	"comborose_active": {
		"slots": {
			"light_glow": {
				"color": [
					{ "color": "ffffff00", "curve": 0.25, "c3": 0.75 },
					{ "time": 0.3333, "color": "ffffffff" }
				]
			},
			"light_stroke1": {
				"color": [
					{ "color": "ffffffff" }
				]
			},
			"light_stroke2": {
				"color": [
					{ "color": "ffffff00", "curve": 0.003, "c2": 0.97, "c3": 0.75 },
					{ "time": 0.4, "color": "ffffffff" }
				]
			},
			"skill_thumbnail_flip": {
				"color": [
					{ "color": "ffffffff" }
				]
			},
			"slot_bg1": {
				"color": [
					{ "color": "ffffffff" }
				]
			},
			"slot_bg2": {
				"color": [
					{ "color": "ffffff00" },
					{ "time": 0.1667, "color": "ffffffff" }
				]
			},
			"slot_circle": {
				"color": [
					{ "color": "ffffffff" }
				]
			}
		},
		"bones": {
			"light_glow": {
				"translate": [
					{ "curve": 0.25, "c3": 0.75 },
					{ "time": 0.1, "x": -40 }
				],
				"scale": [
					{ "x": 0.1, "y": 0.1, "curve": 0, "c2": 0.99, "c3": 0.75 },
					{ "time": 0.3333 }
				]
			},
			"light_stroke1": {
				"rotate": [
					{ "angle": 120, "curve": 0, "c2": 0.95, "c3": 0.63 },
					{ "time": 2 }
				],
				"translate": [
					{},
					{ "time": 0.1667, "x": -40 }
				],
				"scale": [
					{},
					{ "time": 0.0667, "x": 1.25, "y": 1.25 }
				]
			},
			"light_stroke2": {
				"translate": [
					{ "x": -30.51, "curve": 0, "c2": 1.05, "c3": 0.75 },
					{ "time": 0.8333, "x": 16.42 }
				],
				"scale": [
					{ "x": 0.1, "curve": "stepped" },
					{ "time": 0.0667, "x": 0.1, "curve": 0, "c2": 1.05, "c3": 0.425 },
					{ "time": 0.8333, "x": 1.5, "y": 1.3, "curve": "stepped" },
					{ "time": 2, "x": 1.5, "y": 1.3 }
				]
			},
			"slot_bg1": {
				"rotate": [
					{ "curve": 0, "c2": 0.54, "c3": 0.232 },
					{ "time": 2, "angle": 180 }
				],
				"scale": [
					{},
					{ "time": 0.1667, "x": 0.962, "y": 0.962 }
				]
			},
			"slot_bg2": {
				"rotate": [
					{ "angle": 140, "curve": 0, "c2": 0.95, "c3": 0.63 },
					{ "time": 2 }
				],
				"translate": [
					{},
					{ "time": 0.1667, "x": -40 }
				],
				"scale": [
					{ "x": 1.213, "y": 1.213 }
				]
			},
			"slot_circle": {
				"rotate": [
					{ "curve": 0, "c2": 0.6, "c3": 0.22 },
					{ "time": 2, "angle": -60 }
				],
				"translate": [
					{ "curve": 0.25, "c3": 0.75 },
					{ "time": 0.1, "x": -40 }
				],
				"scale": [
					{ "curve": 0.25, "c3": 0.75 },
					{ "time": 0.1, "x": 1.5, "y": 1.5, "curve": 0.25, "c3": 0.75 },
					{ "time": 0.1667, "x": 1.3, "y": 1.3 }
				]
			},
			"skill_thumbnail": {
				"translate": [
					{ "curve": 0.25, "c3": 0.75 },
					{ "time": 0.1, "x": -40 }
				],
				"scale": [
					{ "curve": 0.25, "c3": 0.75 },
					{ "time": 0.1, "x": 1.2, "y": 1.2, "curve": 0.25, "c3": 0.75 },
					{ "time": 0.1667, "x": 1.25, "y": 1.25 },
					{ "time": 1.1667, "x": 1.333, "y": 1.333 }
				]
			}
		}
	},
	"comborose_inactive": {
		"slots": {
			"light_glow": {
				"color": [
					{ "color": "ffffffff" },
					{ "time": 0.5, "color": "ffffff00" }
				]
			},
			"light_stroke1": {
				"color": [
					{ "color": "ffffffff" }
				]
			},
			"light_stroke2": {
				"color": [
					{ "color": "ffffffff", "curve": 0, "c2": 0.89, "c3": 0.75 },
					{ "time": 0.5667, "color": "ffffff00" }
				]
			},
			"skill_thumbnail_flip": {
				"color": [
					{ "color": "ffffffff" }
				]
			},
			"slot_bg1": {
				"color": [
					{ "color": "ffffffff" }
				]
			},
			"slot_bg2": {
				"color": [
					{ "color": "ffffffff" },
					{ "time": 0.6667, "color": "ffffff00" }
				]
			},
			"slot_circle": {
				"color": [
					{ "color": "ffffffff" }
				]
			}
		},
		"bones": {
			"light_glow": {
				"translate": [
					{ "x": -40, "curve": 0, "c2": 0.25, "c4": 0.75 },
					{ "time": 0.5 }
				],
				"scale": [
					{},
					{ "time": 0.5, "x": 0.1, "y": 0.1 }
				]
			},
			"light_stroke1": {
				"rotate": [
					{ "curve": 0, "c2": 0.83, "c3": 0.75 },
					{ "time": 2, "angle": -120 }
				],
				"translate": [
					{ "x": -40, "curve": 0, "c2": 0.99, "c3": 0.75 },
					{ "time": 0.1667 }
				],
				"scale": [
					{ "x": 1.2, "y": 1.2, "curve": 0, "c2": 0.28, "c3": 0.151 },
					{ "time": 0.5, "x": 0.723, "y": 0.723 }
				]
			},
			"light_stroke2": {
				"translate": [
					{ "x": 16.42, "curve": 0, "c2": 0.89, "c3": 0.75 },
					{ "time": 0.5667, "x": -30.51 }
				],
				"scale": [
					{ "x": 1.5, "y": 1.3 },
					{ "time": 0.7333, "x": 0.5, "y": 0.5 }
				]
			},
			"slot_bg1": {
				"rotate": [
					{ "angle": 180, "curve": 0, "c2": 0.98, "c3": 0.75 },
					{ "time": 2, "angle": 60 }
				],
				"scale": [
					{ "x": 0.85, "y": 0.85 },
					{ "time": 0.1667 }
				]
			},
			"slot_bg2": {
				"rotate": [
					{},
					{ "time": 2, "angle": 90 }
				],
				"translate": [
					{ "x": -40, "curve": 0, "c2": 0.99, "c3": 0.75 },
					{ "time": 0.1667 }
				],
				"scale": [
					{ "x": 1.2, "y": 1.2, "curve": 0, "c2": 0.28, "c3": 0.151 },
					{ "time": 2, "x": 0.8, "y": 0.8 }
				]
			},
			"slot_circle": {
				"rotate": [
					{ "angle": -60, "curve": 0, "c2": 0.73, "c3": 0.75 },
					{ "time": 2 }
				],
				"translate": [
					{ "x": -40, "curve": 0, "c2": 0.98, "c3": 0.75 },
					{ "time": 0.1667 }
				],
				"scale": [
					{ "x": 1.3, "y": 1.3, "curve": 0, "c2": 0.98, "c3": 0.75 },
					{ "time": 0.1667 }
				]
			},
			"skill_thumbnail": {
				"translate": [
					{ "x": -40, "curve": 0, "c2": 0.98, "c3": 0.75 },
					{ "time": 0.1667 }
				],
				"scale": [
					{ "x": 1.25, "y": 1.25, "curve": 0, "c2": 0.98, "c3": 0.75 },
					{ "time": 0.1667 }
				]
			}
		}
	},
	"comborose_popout": {
		"slots": {
			"light_glow": {
				"color": [
					{ "color": "ffffff00" }
				]
			},
			"light_stroke1": {
				"color": [
					{ "color": "ffffffff" },
					{ "time": 0.0333, "color": "ffffff00" }
				]
			},
			"light_stroke2": {
				"color": [
					{ "color": "ffffff00" }
				]
			},
			"skill_thumbnail_flip": {
				"color": [
					{ "color": "ffffffff" },
					{ "time": 0.1, "color": "ffffff00" }
				]
			},
			"slot_bg1": {
				"color": [
					{ "color": "ffffffff" },
					{ "time": 0.1, "color": "ffffff00" }
				]
			},
			"slot_bg2": {
				"color": [
					{ "color": "ffffff00" }
				]
			},
			"slot_circle": {
				"color": [
					{ "color": "ffffffff" },
					{ "time": 0.1, "color": "ffffff00" }
				]
			}
		},
		"bones": {
			"light_stroke1": {
				"rotate": [
					{ "angle": -120, "curve": 0.003, "c2": 0.97, "c3": 0.75 },
					{ "time": 0.0667, "angle": 160 }
				],
				"scale": [
					{},
					{ "time": 0.0667, "x": 0.2, "y": 0.2 }
				]
			},
			"slot_bg1": {
				"rotate": [
					{ "curve": 0, "c2": 0.88, "c3": 0.75 },
					{ "time": 0.1, "angle": 60 }
				]
			},
			"slot_circle": {
				"scale": [
					{ "curve": 0, "c2": 0.25, "c4": 0.75 },
					{ "time": 0.1, "x": 0.5, "y": 0.5 }
				]
			},
			"skill_thumbnail": {
				"scale": [
					{ "curve": 0, "c2": 0.25, "c4": 0.75 },
					{ "time": 0.1, "x": 0.5, "y": 0.5 }
				]
			}
		}
	},
	"comborose_popup": {
		"slots": {
			"light_stroke1": {
				"color": [
					{ "color": "ffffff00" }
				]
			},
			"light_stroke2": {
				"color": [
					{ "color": "ffffff00" }
				]
			},
			"skill_thumbnail_flip": {
				"color": [
					{ "color": "ffffffff" }
				]
			},
			"slot_bg1": {
				"color": [
					{ "color": "ffffffff" }
				]
			},
			"slot_circle": {
				"color": [
					{ "color": "ffffffff" }
				]
			}
		},
		"bones": {
			"light_stroke1": {
				"rotate": [
					{ "curve": 0.003, "c2": 0.97, "c3": 0.75 },
					{ "time": 2, "angle": -120 }
				],
				"translate": [
					{ "x": 220, "curve": "stepped" },
					{ "time": 0.0667, "x": 220, "curve": 0.25, "c3": 0.75 },
					{ "time": 0.2333 }
				],
				"scale": [
					{ "x": 0.2, "y": 0.2, "curve": 0, "c2": 0.93, "c3": 0.75 },
					{ "time": 0.6333 }
				]
			},
			"slot_bg1": {
				"rotate": [
					{ "angle": -133.04, "curve": 0, "c2": 0.33, "c3": 0 },
					{ "time": 2 }
				],
				"scale": [
					{ "x": 0.5, "y": 0.5 },
					{ "time": 0.2333, "x": 1.1, "y": 1.1 },
					{ "time": 0.3 }
				]
			},
			"slot_circle": {
				"rotate": [
					{ "curve": 0.25, "c3": 0.407 },
					{ "time": 2, "angle": 30 }
				],
				"translate": [
					{ "x": 220, "curve": "stepped" },
					{ "time": 0.0667, "x": 220, "curve": 0.25, "c3": 0.75 },
					{ "time": 0.2333 }
				],
				"scale": [
					{ "x": 0, "y": 0, "curve": "stepped" },
					{ "time": 0.0667, "x": 0, "y": 0, "curve": 0.25, "c3": 0.75 },
					{ "time": 0.2333, "x": 1.2, "y": 1.2, "curve": 0.25, "c3": 0.75 },
					{ "time": 0.3 }
				]
			},
			"skill_thumbnail": {
				"translate": [
					{ "x": 220, "curve": "stepped" },
					{ "time": 0.0667, "x": 220, "curve": 0.25, "c3": 0.75 },
					{ "time": 0.2333 }
				],
				"scale": [
					{ "x": 0, "y": 0, "curve": "stepped" },
					{ "time": 0.0667, "x": 0, "y": 0, "curve": 0.25, "c3": 0.75 },
					{ "time": 0.2333, "x": 1.2, "y": 1.2, "curve": 0.25, "c3": 0.75 },
					{ "time": 0.3 }
				]
			}
		}
	},
	"comborose_selected": {
		"slots": {
			"light_glow": {
				"color": [
					{ "color": "ffffffff", "curve": 0, "c2": 0.66, "c3": 0.75 },
					{ "time": 0.5, "color": "ffffff00" }
				]
			},
			"light_stroke1": {
				"color": [
					{ "color": "ffffffff", "curve": 0, "c2": 0.99, "c3": 0.75 },
					{ "time": 0.2333, "color": "ffffff00" }
				]
			},
			"light_stroke2": {
				"color": [
					{ "color": "ffffffff", "curve": 0, "c2": 1, "c3": 0.75 },
					{ "time": 0.5667, "color": "ffffff00" }
				]
			},
			"skill_thumbnail_flip": {
				"color": [
					{ "color": "ffffffff", "curve": "stepped" },
					{ "time": 0.2667, "color": "ffffffff", "curve": 0.018, "c2": 0.96, "c3": 0.75 },
					{ "time": 0.8333, "color": "ffffff00" }
				]
			},
			"slot_bg1": {
				"color": [
					{ "color": "ffffffff" },
					{ "time": 0.8333, "color": "ffffff00" }
				]
			},
			"slot_bg2": {
				"color": [
					{ "color": "ffffffff" },
					{ "time": 0.3333, "color": "ffffff00" }
				]
			},
			"slot_circle": {
				"color": [
					{ "time": 0.1667, "color": "ffffffff", "curve": 0.018, "c2": 0.96, "c3": 0.75 },
					{ "time": 0.8333, "color": "ffffff00" }
				]
			}
		},
		"bones": {
			"light_glow": {
				"scale": [
					{},
					{ "time": 0.5, "x": 1.6, "y": 1.6 }
				]
			},
			"light_stroke1": {
				"scale": [
					{ "curve": 0, "c2": 0.98, "c3": 0.75 },
					{ "time": 0.3333, "x": 1.6, "y": 1.6 }
				]
			},
			"light_stroke2": {
				"translate": [
					{ "x": 16.42 }
				],
				"scale": [
					{ "time": 1.1667, "x": 1.5, "y": 1.3 }
				]
			},
			"slot_bg1": {
				"scale": [
					{ "curve": 0, "c2": 0.3, "c3": 0.521 },
					{ "time": 0.8333, "x": 0.8, "y": 0.8 }
				]
			},
			"slot_bg2": {
				"rotate": [
					{}
				],
				"scale": [
					{ "curve": 0, "c2": 0.91, "c3": 0.75 },
					{ "time": 0.3333, "x": 1.4, "y": 1.4 }
				]
			},
			"slot_circle": {
				"scale": [
					{ "x": 1.3, "y": 1.3, "curve": 0.018, "c2": 0.96, "c3": 0.75 },
					{ "time": 0.8333, "x": 1.6, "y": 1.6 }
				]
			},
			"skill_thumbnail": {
				"scale": [
					{ "x": 1.3, "y": 1.3, "curve": 0.018, "c2": 0.96, "c3": 0.75 },
					{ "time": 0.8333, "x": 1.6, "y": 1.6 }
				]
			}
		}
	}
}
}